Notebooks/extras/classes_MH/class_06/FFT/ORANGE/ALL0004/F0004MTH.CSV

Record Length,1.024000e+03,,          0.00000, -43.76910,
Sample Interval,2.466067e-03,,          0.00247, -46.56910,
Trigger Point,0.000000000000e+00,,          0.00493, -88.16910,
,,,          0.00740, -89.76910,
,,,          0.00986, -92.16910,
,,,          0.01233, -92.96910,
Source,MATH,,          0.01480, -96.96910,
Vertical Units,dB,,          0.01726,-100.96910,
Vertical Scale,1.000000e+01,,          0.01973, -95.76910,
Vertical Offset,0.000000e+00,,          0.02219, -89.76910,
Horizontal Units,Hz,,          0.02466, -93.76910,
Horizontal Scale,2.525253e-01,,          0.02713, -94.56910,
Pt Fmt,Y,,          0.02959, -93.76910,
Yzero,-6.096910e+01,,          0.03206,-100.96910,
Probe Atten,1.000000e+00,,          0.03452, -99.76910,
Model Number,TDS2024C,,          0.03699, -90.96910,
Serial Number,C010889,,          0.03946, -94.56910,
Firmware Version,FV:v24.09,,          0.04192,-100.96910,
,,,0.04439,-100.96910,
,,,0.04686, -92.96910,
,,,0.04933, -91.76910,
,,,0.05180, -89.36910,
,,,0.05427, -88.96910,
,,,0.05674, -92.96910,
,,,0.05921, -88.96910,
,,,0.06168, -93.76910,
,,,0.06415,-100.96910,
,,,0.06662, -94.56910,
,,,0.06909, -96.96910,
,,,0.07156, -97.36910,
,,,0.07403, -99.76910,
,,,0.07650, -92.16910,
,,,0.07897, -94.56910,
,,,0.08144, -92.96910,
,,,0.08391, -91.36910,
,,,0.08638, -94.56910,
,,,0.08885, -89.76910,
,,,0.09132, -92.96910,
,,,0.09379, -97.76910,
,,,0.09626,-100.96910,
,,,0.09873, -99.76910,
,,,0.10120, -95.76910,
,,,0.10367, -91.76910,
,,,0.10614, -99.76910,
,,,0.10861,-100.96910,
,,,0.11108, -89.76910,
,,,0.11355, -94.56910,
,,,0.11602, -94.56910,
,,,0.11849, -99.76910,
,,,0.12096, -97.36910,
,,,0.12343, -96.96910,
,,,0.12590, -95.76910,
,,,0.12837, -97.76910,
,,,0.13084, -99.76910,
,,,0.13331, -92.96910,
,,,0.13578, -91.76910,
,,,0.13825, -88.96910,
,,,0.14072, -94.56910,
,,,0.14319, -99.76910,
,,,0.14566, -99.76910,
,,,0.14813, -94.96910,
,,,0.15060,-100.96910,
,,,0.15307, -92.96910,
,,,0.15554,-100.96910,
,,,0.15801, -94.56910,
,,,0.16048, -91.36910,
,,,0.16295, -88.96910,
,,,0.16542, -99.76910,
,,,0.16789,-100.96910,
,,,0.17036, -93.76910,
,,,0.17283, -94.56910,
,,,0.17530, -92.96910,
,,,0.17777, -99.76910,
,,,0.18024, -86.96910,
,,,0.18271, -84.16910,
,,,0.18518, -89.76910,
,,,0.18765, -95.76910,
,,,0.19012, -91.76910,
,,,0.19259, -95.76910,
,,,0.19506, -94.56910,
,,,0.19753, -94.96910,
,,,0.20000, -99.76910,
,,,0.20247, -92.16910,
,,,0.20494, -88.16910,
,,,0.20741, -95.76910,
,,,0.20988, -96.96910,
,,,0.21235, -91.76910,
,,,0.21482, -89.76910,
,,,0.21729, -96.96910,
,,,0.21976, -94.96910,
,,,0.22223, -95.76910,
,,,0.22470, -91.76910,
,,,0.22717, -95.76910,
,,,0.22964, -94.56910,
,,,0.23211,-100.96910,
,,,0.23458, -96.96910,
,,,0.23705, -92.96910,
,,,0.23952, -97.76910,
,,,0.24199, -92.96910,
,,,0.24446, -96.96910,
,,,0.24693,-100.96910,
,,,0.24940, -90.56910,
,,,0.25187, -90.96910,
,,,0.25434, -96.96910,
,,,0.25681, -92.96910,
,,,0.25928, -88.16910,
,,,0.26175, -88.56910,
,,,0.26422, -96.96910,
,,,0.26669, -87.36910,
,,,0.26916, -87.36910,
,,,0.27163, -92.96910,
,,,0.27410, -94.56910,
,,,0.27657, -99.76910,
,,,0.27904, -94.96910,
,,,0.28151, -96.96910,
,,,0.28398, -95.76910,
,,,0.28645, -96.96910,
,,,0.28892, -99.76910,
,,,0.29139, -96.96910,
,,,0.29386, -97.76910,
,,,0.29633, -90.96910,
,,,0.29880, -99.76910,
,,,0.30127, -93.76910,
,,,0.30374, -91.36910,
,,,0.30621, -89.36910,
,,,0.30868, -87.76910,
,,,0.31115, -87.36910,
,,,0.31362, -96.96910,
,,,0.31609, -92.96910,
,,,0.31856, -90.96910,
,,,0.32103, -94.56910,
,,,0.32350, -89.76910,
,,,0.32597, -86.16910,
,,,0.32844, -85.36910,
,,,0.33091, -86.96910,
,,,0.33338, -89.76910,
,,,0.33585, -92.96910,
,,,0.33832, -95.76910,
,,,0.34079, -96.96910,
,,,0.34326, -95.76910,
,,,0.34573, -94.56910,
,,,0.34820,-100.96910,
,,,0.35067, -97.36910,
,,,0.35314,-100.96910,
,,,0.35561, -94.56910,
,,,0.35808, -88.56910,
,,,0.36055, -92.16910,
,,,0.36302,-100.96910,
,,,0.36549,-100.96910,
,,,0.36796,-100.96910,
,,,0.37043, -88.96910,
,,,0.37290, -87.76910,
,,,0.37537, -88.16910,
,,,0.37784, -89.76910,
,,,0.38031, -93.76910,
,,,0.38278, -96.96910,
,,,0.38525, -95.76910,
,,,0.38772, -96.96910,
,,,0.39019, -86.96910,
,,,0.39266, -97.36910,
,,,0.39513, -95.76910,
,,,0.39760, -93.76910,
,,,0.40007, -89.76910,
,,,0.40254, -90.56910,
,,,0.40501, -95.76910,
,,,0.40748, -87.76910,
,,,0.40995, -90.16910,
,,,0.41242, -97.76910,
,,,0.41489, -95.76910,
,,,0.41736, -92.96910,
,,,0.41983, -94.56910,
,,,0.42230, -95.76910,
,,,0.42477, -91.36910,
,,,0.42724, -91.36910,
,,,0.42971, -95.76910,
,,,0.43218, -97.36910,
,,,0.43465, -92.16910,
,,,0.43712, -90.56910,
,,,0.43959, -94.96910,
,,,0.44206, -91.76910,
,,,0.44453, -92.16910,
,,,0.44700, -91.36910,
,,,0.44947, -88.96910,
,,,0.45194, -91.36910,
,,,0.45441, -88.56910,
,,,0.45688, -90.56910,
,,,0.45935,-100.96910,
,,,0.46182, -93.76910,
,,,0.46429, -94.56910,
,,,0.46676, -93.76910,
,,,0.46923, -91.76910,
,,,0.47170, -99.76910,
,,,0.47417,-100.96910,
,,,0.47664, -86.96910,
,,,0.47911, -87.76910,
,,,0.48158, -88.96910,
,,,0.48405, -83.36910,
,,,0.48652, -83.76910,
,,,0.48899, -92.16910,
,,,0.49146, -97.76910,
,,,0.49393, -88.16910,
,,,0.49640, -92.96910,
,,,0.49887, -92.16910,
,,,0.50134, -92.16910,
,,,0.50381, -94.56910,
,,,0.50628,-100.96910,
,,,0.50875, -89.76910,
,,,0.51122, -86.56910,
,,,0.51369, -89.76910,
,,,0.51616, -96.96910,
,,,0.51863,-100.96910,
,,,0.52110, -89.36910,
,,,0.52357, -86.96910,
,,,0.52604,-100.96910,
,,,0.52851, -88.96910,
,,,0.53098, -87.76910,
,,,0.53345, -87.36910,
,,,0.53592, -94.56910,
,,,0.53839, -95.76910,
,,,0.54086, -88.96910,
,,,0.54333, -95.76910,
,,,0.54580, -99.76910,
,,,0.54827, -99.76910,
,,,0.55074,-100.96910,
,,,0.55321, -97.36910,
,,,0.55568, -97.76910,
,,,0.55815,-100.96910,
,,,0.56062, -92.96910,
,,,0.56309, -88.96910,
,,,0.56556, -89.76910,
,,,0.56803, -92.96910,
,,,0.57050,-100.96910,
,,,0.57297, -93.76910,
,,,0.57544, -92.96910,
,,,0.57791, -91.76910,
,,,0.58038,-100.96910,
,,,0.58285,-100.96910,
,,,0.58532, -96.96910,
,,,0.58779,-100.96910,
,,,0.59026, -97.76910,
,,,0.59273, -91.76910,
,,,0.59520, -91.76910,
,,,0.59767, -85.36910,
,,,0.60014, -84.56910,
,,,0.60261, -96.96910,
,,,0.60508, -96.96910,
,,,0.60755, -92.96910,
,,,0.61002, -90.96910,
,,,0.61249, -90.56910,
,,,0.61496, -88.96910,
,,,0.61743, -89.76910,
,,,0.61990, -90.96910,
,,,0.62237, -89.76910,
,,,0.62484, -86.96910,
,,,0.62731, -94.56910,
,,,0.62978, -97.36910,
,,,0.63225, -96.96910,
,,,0.63472, -92.96910,
,,,0.63719,-100.96910,
,,,0.63966, -91.36910,
,,,0.64213, -91.76910,
,,,0.64460, -95.76910,
,,,0.64707, -87.76910,
,,,0.64954, -89.36910,
,,,0.65201, -92.96910,
,,,0.65448, -93.76910,
,,,0.65695, -92.96910,
,,,0.65942, -92.96910,
,,,0.66189, -97.36910,
,,,0.66436, -89.76910,
,,,0.66683, -92.96910,
,,,0.66930, -95.76910,
,,,0.67177, -94.56910,
,,,0.67424, -87.36910,
,,,0.67671, -99.76910,
,,,0.67918, -99.76910,
,,,0.68165,-100.96910,
,,,0.68412, -99.76910,
,,,0.68659, -96.96910,
,,,0.68906, -99.76910,
,,,0.69153, -93.76910,
,,,0.69400, -89.76910,
,,,0.69647, -91.36910,
,,,0.69894, -90.96910,
,,,0.70141, -92.96910,
,,,0.70388, -97.36910,
,,,0.70635, -93.76910,
,,,0.70882, -88.16910,
,,,0.71129, -87.36910,
,,,0.71376, -92.16910,
,,,0.71623, -99.76910,
,,,0.71870, -97.76910,
,,,0.72117, -90.56910,
,,,0.72364, -85.36910,
,,,0.72611, -86.96910,
,,,0.72858,-100.96910,
,,,0.73105, -95.76910,
,,,0.73352,-100.96910,
,,,0.73599, -90.96910,
,,,0.73846, -86.16910,
,,,0.74093, -91.76910,
,,,0.74340, -94.96910,
,,,0.74587, -97.36910,
,,,0.74834, -94.56910,
,,,0.75081, -96.96910,
,,,0.75328, -99.76910,
,,,0.75575, -86.16910,
,,,0.75822, -86.96910,
,,,0.76069, -93.76910,
,,,0.76316, -94.56910,
,,,0.76563, -92.96910,
,,,0.76810, -99.76910,
,,,0.77057,-100.96910,
,,,0.77304, -92.96910,
,,,0.77551, -90.96910,
,,,0.77798, -94.96910,
,,,0.78045,-100.96910,
,,,0.78292, -96.96910,
,,,0.78539, -90.16910,
,,,0.78786, -85.76910,
,,,0.79033, -88.96910,
,,,0.79280, -95.76910,
,,,0.79527, -95.76910,
,,,0.79774, -93.76910,
,,,0.80021, -91.36910,
,,,0.80268, -88.16910,
,,,0.80515, -93.76910,
,,,0.80762, -87.36910,
,,,0.81009, -86.56910,
,,,0.81256, -89.76910,
,,,0.81503, -84.56910,
,,,0.81750, -86.96910,
,,,0.81997, -93.76910,
,,,0.82244, -94.56910,
,,,0.82491,-100.96910,
,,,0.82738, -94.56910,
,,,0.82985, -88.56910,
,,,0.83232, -97.36910,
,,,0.83479, -86.96910,
,,,0.83726, -87.36910,
,,,0.83973, -97.76910,
,,,0.84220, -97.36910,
,,,0.84467, -91.76910,
,,,0.84714, -84.96910,
,,,0.84961, -79.76910,
,,,0.85208, -82.96910,
,,,0.85455, -87.76910,
,,,0.85702, -92.96910,
,,,0.85949, -81.76910,
,,,0.86196, -78.96910,
,,,0.86443, -80.96910,
,,,0.86690, -84.96910,
,,,0.86937, -85.36910,
,,,0.87184, -92.96910,
,,,0.87431, -87.76910,
,,,0.87678, -82.16910,
,,,0.87925, -86.16910,
,,,0.88172, -90.56910,
,,,0.88419,-100.96910,
,,,0.88666, -96.96910,
,,,0.88913, -88.96910,
,,,0.89160, -99.76910,
,,,0.89407, -97.36910,
,,,0.89654, -96.96910,
,,,0.89901, -99.76910,
,,,0.90148, -86.96910,
,,,0.90395, -85.76910,
,,,0.90642, -90.56910,
,,,0.90889, -88.56910,
,,,0.91136, -86.96910,
,,,0.91383, -83.76910,
,,,0.91630, -81.36910,
,,,0.91877, -81.36910,
,,,0.92124, -86.96910,
,,,0.92371, -91.36910,
,,,0.92618, -78.56910,
,,,0.92865, -82.16910,
,,,0.93112, -84.56910,
,,,0.93359, -79.76910,
,,,0.93606, -75.76910,
,,,0.93853, -78.96910,
,,,0.94100, -91.36910,
,,,0.94347, -80.16910,
,,,0.94594, -78.16910,
,,,0.94841, -76.56910,
,,,0.95088, -79.76910,
,,,0.95335, -72.96910,
,,,0.95582, -70.56910,
,,,0.95829, -69.76910,
,,,0.96076, -72.16910,
,,,0.96323, -70.16910,
,,,0.96570, -63.76910,
,,,0.96817, -61.36910,
,,,0.97064, -64.16910,
,,,0.97311, -61.36910,
,,,0.97558, -58.16910,
,,,0.97805, -58.16910,
,,,0.98052, -62.96910,
,,,0.98299, -58.96910,
,,,0.98546, -52.96910,
,,,0.98793, -54.56910,
,,,0.99040, -60.16910,
,,,0.99287, -84.56910,
,,,0.99534, -69.36910,
,,,0.99781, -76.56910,
,,,1.00028, -75.36910,
,,,1.00275, -68.16910,
,,,1.00522, -71.36910,
,,,1.00769, -78.16910,
,,,1.01016, -78.16910,
,,,1.01263, -74.56910,
,,,1.01510, -78.16910,
,,,1.01757, -82.16910,
,,,1.02004, -80.56910,
,,,1.02251, -78.16910,
,,,1.02498, -83.76910,
,,,1.02745, -85.36910,
,,,1.02992, -87.76910,
,,,1.03239, -86.96910,
,,,1.03486, -80.56910,
,,,1.03733, -79.76910,
,,,1.03980, -92.96910,
,,,1.04227, -90.96910,
,,,1.04474, -89.76910,
,,,1.04721, -82.96910,
,,,1.04968, -83.76910,
,,,1.05215, -85.36910,
,,,1.05462, -83.76910,
,,,1.05709, -82.96910,
,,,1.05956, -85.76910,
,,,1.06203, -82.96910,
,,,1.06450, -84.96910,
,,,1.06697, -84.56910,
,,,1.06944, -84.96910,
,,,1.07191, -86.96910,
,,,1.07438,-100.96910,
,,,1.07685, -88.16910,
,,,1.07932, -99.76910,
,,,1.08179, -88.96910,
,,,1.08426,-100.96910,
,,,1.08673,-100.96910,
,,,1.08920, -86.16910,
,,,1.09167, -88.96910,
,,,1.09414, -88.96910,
,,,1.09661, -83.36910,
,,,1.09908, -89.76910,
,,,1.10155, -82.96910,
,,,1.10402, -80.16910,
,,,1.10649, -84.16910,
,,,1.10896, -78.16910,
,,,1.11143, -77.36910,
,,,1.11390, -81.76910,
,,,1.11637, -95.76910,
,,,1.11884, -86.56910,
,,,1.12131, -87.76910,
,,,1.12378, -91.36910,
,,,1.12625, -94.96910,
,,,1.12872, -99.76910,
,,,1.13119, -99.76910,
,,,1.13366, -97.36910,
,,,1.13613, -85.36910,
,,,1.13860, -84.96910,
,,,1.14107, -91.76910,
,,,1.14354, -86.16910,
,,,1.14601, -83.36910,
,,,1.14848, -84.96910,
,,,1.15095, -88.56910,
,,,1.15342, -86.56910,
,,,1.15589, -87.36910,
,,,1.15836, -87.76910,
,,,1.16083, -92.96910,
,,,1.16330, -83.36910,
,,,1.16577, -84.16910,
,,,1.16824, -91.76910,
,,,1.17071, -99.76910,
,,,1.17318, -92.96910,
,,,1.17565, -94.56910,
,,,1.17812,-100.96910,
,,,1.18059, -99.76910,
,,,1.18306, -92.96910,
,,,1.18553, -86.96910,
,,,1.18800, -87.36910,
,,,1.19047, -99.76910,
,,,1.19294, -94.56910,
,,,1.19541, -93.76910,
,,,1.19788, -94.56910,
,,,1.20035, -88.96910,
,,,1.20282, -90.96910,
,,,1.20529, -89.76910,
,,,1.20776, -92.96910,
,,,1.21023, -93.76910,
,,,1.21270, -99.76910,
,,,1.21517, -97.36910,
,,,1.21764, -93.76910,
,,,1.22011,-100.96910,
,,,1.22258, -90.96910,
,,,1.22505, -91.76910,
,,,1.22752, -92.96910,
,,,1.22999, -92.96910,
,,,1.23246, -88.96910,
,,,1.23493, -92.96910,
,,,1.23740, -92.16910,
,,,1.23987, -87.76910,
,,,1.24234, -88.16910,
,,,1.24481, -89.76910,
,,,1.24728, -99.76910,
,,,1.24975, -99.76910,
,,,1.25222, -92.96910,
,,,1.25469, -99.76910,
,,,1.25716, -99.76910,
,,,1.25963, -99.76910,
,,,1.26210, -89.76910,
,,,1.26457, -91.76910,
,,,1.26704, -91.36910,
,,,1.26951, -95.76910,
,,,1.27198, -92.16910,
,,,1.27445, -87.76910,
,,,1.27692, -92.96910,
,,,1.27939, -95.76910,
,,,1.28186, -94.56910,
,,,1.28433, -92.96910,
,,,1.28680, -89.76910,
,,,1.28927, -86.96910,
,,,1.29174, -91.36910,
,,,1.29421, -97.36910,
,,,1.29668,-100.96910,
,,,1.29915, -94.56910,
,,,1.30162, -96.96910,
,,,1.30409, -96.96910,
,,,1.30656, -91.36910,
,,,1.30903, -89.76910,
,,,1.31150, -88.96910,
,,,1.31397, -90.96910,
,,,1.31644,-100.96910,
,,,1.31891, -92.96910,
,,,1.32138, -90.56910,
,,,1.32385, -93.76910,
,,,1.32632, -92.96910,
,,,1.32879, -94.96910,
,,,1.33126,-100.96910,
,,,1.33373,-100.96910,
,,,1.33620, -94.96910,
,,,1.33867, -92.16910,
,,,1.34114, -97.36910,
,,,1.34361, -90.96910,
,,,1.34608, -87.76910,
,,,1.34855, -92.96910,
,,,1.35102, -90.16910,
,,,1.35349, -90.16910,
,,,1.35596, -95.76910,
,,,1.35843, -92.16910,
,,,1.36090, -96.96910,
,,,1.36337, -89.76910,
,,,1.36584, -88.56910,
,,,1.36831, -88.96910,
,,,1.37078, -85.76910,
,,,1.37325, -85.36910,
,,,1.37572, -88.96910,
,,,1.37819, -91.76910,
,,,1.38066,-100.96910,
,,,1.38313, -93.76910,
,,,1.38560,-100.96910,
,,,1.38807, -96.96910,
,,,1.39054, -94.56910,
,,,1.39301, -95.76910,
,,,1.39548, -86.96910,
,,,1.39795, -94.96910,
,,,1.40042, -96.96910,
,,,1.40289, -89.76910,
,,,1.40536, -86.16910,
,,,1.40783, -88.16910,
,,,1.41030,-100.96910,
,,,1.41277, -90.96910,
,,,1.41524, -88.16910,
,,,1.41771, -89.76910,
,,,1.42018, -99.76910,
,,,1.42265, -97.76910,
,,,1.42512, -97.76910,
,,,1.42759,-100.96910,
,,,1.43006, -92.96910,
,,,1.43253, -88.56910,
,,,1.43500, -90.56910,
,,,1.43747, -90.56910,
,,,1.43994, -84.16910,
,,,1.44241, -85.76910,
,,,1.44488, -86.96910,
,,,1.44735, -87.76910,
,,,1.44982, -92.96910,
,,,1.45229, -96.96910,
,,,1.45476,-100.96910,
,,,1.45723,-100.96910,
,,,1.45970, -89.76910,
,,,1.46217, -91.76910,
,,,1.46464, -95.76910,
,,,1.46711, -89.76910,
,,,1.46958, -90.56910,
,,,1.47205, -90.16910,
,,,1.47452, -86.16910,
,,,1.47699, -89.76910,
,,,1.47946, -99.76910,
,,,1.48193,-100.96910,
,,,1.48440, -97.36910,
,,,1.48687,-100.96910,
,,,1.48934, -92.16910,
,,,1.49181, -92.96910,
,,,1.49428, -92.96910,
,,,1.49675, -90.96910,
,,,1.49922, -99.76910,
,,,1.50169, -92.96910,
,,,1.50416, -91.76910,
,,,1.50663, -94.56910,
,,,1.50910, -96.96910,
,,,1.51157, -89.76910,
,,,1.51404, -91.36910,
,,,1.51651, -94.56910,
,,,1.51898, -89.36910,
,,,1.52145, -88.96910,
,,,1.52392, -96.96910,
,,,1.52639, -97.76910,
,,,1.52886, -96.96910,
,,,1.53133,-100.96910,
,,,1.53380, -94.56910,
,,,1.53627, -95.76910,
,,,1.53874, -96.96910,
,,,1.54121, -94.96910,
,,,1.54368, -86.56910,
,,,1.54615, -91.36910,
,,,1.54862, -92.16910,
,,,1.55109, -87.76910,
,,,1.55356, -90.96910,
,,,1.55603, -99.76910,
,,,1.55850, -90.96910,
,,,1.56097, -86.96910,
,,,1.56344, -90.96910,
,,,1.56591, -99.76910,
,,,1.56838, -92.16910,
,,,1.57085,-100.96910,
,,,1.57332, -91.36910,
,,,1.57579, -90.16910,
,,,1.57826, -92.96910,
,,,1.58073, -95.76910,
,,,1.58320, -97.76910,
,,,1.58567,-100.96910,
,,,1.58814, -94.96910,
,,,1.59061, -99.76910,
,,,1.59308, -94.56910,
,,,1.59555, -88.96910,
,,,1.59802, -90.96910,
,,,1.60049, -96.96910,
,,,1.60296, -97.76910,
,,,1.60543, -90.96910,
,,,1.60790, -88.96910,
,,,1.61037, -88.96910,
,,,1.61284, -91.36910,
,,,1.61531, -99.76910,
,,,1.61778,-100.96910,
,,,1.62025, -99.76910,
,,,1.62272, -96.96910,
,,,1.62519, -94.56910,
,,,1.62766,-100.96910,
,,,1.63013, -94.56910,
,,,1.63260, -94.96910,
,,,1.63507, -91.76910,
,,,1.63754, -87.36910,
,,,1.64001, -92.96910,
,,,1.64248,-100.96910,
,,,1.64495,-100.96910,
,,,1.64742,-100.96910,
,,,1.64989, -94.56910,
,,,1.65236, -86.96910,
,,,1.65483, -88.96910,
,,,1.65730, -93.76910,
,,,1.65977, -90.56910,
,,,1.66224, -91.76910,
,,,1.66471, -94.96910,
,,,1.66718, -89.76910,
,,,1.66965, -88.96910,
,,,1.67212,-100.96910,
,,,1.67459, -93.76910,
,,,1.67706, -96.96910,
,,,1.67953,-100.96910,
,,,1.68200, -94.56910,
,,,1.68447, -86.96910,
,,,1.68694, -91.76910,
,,,1.68941, -92.16910,
,,,1.69188, -91.36910,
,,,1.69435, -88.96910,
,,,1.69682, -88.96910,
,,,1.69929, -97.36910,
,,,1.70176, -99.76910,
,,,1.70423, -96.96910,
,,,1.70670, -92.96910,
,,,1.70917, -94.56910,
,,,1.71164, -92.96910,
,,,1.71411, -94.96910,
,,,1.71658, -93.76910,
,,,1.71905,-100.96910,
,,,1.72152,-100.96910,
,,,1.72399,-100.96910,
,,,1.72646, -88.96910,
,,,1.72893, -95.76910,
,,,1.73140, -90.16910,
,,,1.73387, -87.36910,
,,,1.73634, -92.16910,
,,,1.73881,-100.96910,
,,,1.74128, -99.76910,
,,,1.74375, -96.96910,
,,,1.74622, -88.16910,
,,,1.74869, -89.36910,
,,,1.75116, -92.96910,
,,,1.75363, -92.96910,
,,,1.75610,-100.96910,
,,,1.75857, -92.96910,
,,,1.76104, -92.96910,
,,,1.76351, -92.16910,
,,,1.76598, -99.76910,
,,,1.76845,-100.96910,
,,,1.77092,-100.96910,
,,,1.77339, -97.36910,
,,,1.77586, -99.76910,
,,,1.77833, -94.96910,
,,,1.78080, -95.76910,
,,,1.78327,-100.96910,
,,,1.78574, -94.96910,
,,,1.78821, -96.96910,
,,,1.79068,-100.96910,
,,,1.79315,-100.96910,
,,,1.79562, -96.96910,
,,,1.79809, -90.96910,
,,,1.80056, -92.96910,
,,,1.80303, -94.56910,
,,,1.80550, -92.16910,
,,,1.80797, -90.96910,
,,,1.81044, -94.56910,
,,,1.81291, -93.76910,
,,,1.81538, -92.96910,
,,,1.81785, -97.36910,
,,,1.82032,-100.96910,
,,,1.82279,-100.96910,
,,,1.82526, -90.96910,
,,,1.82773, -88.56910,
,,,1.83020, -90.96910,
,,,1.83267,-100.96910,
,,,1.83514, -96.96910,
,,,1.83761, -94.56910,
,,,1.84008, -90.96910,
,,,1.84255, -95.76910,
,,,1.84502, -99.76910,
,,,1.84749, -94.56910,
,,,1.84996, -96.96910,
,,,1.85243, -95.76910,
,,,1.85490, -96.96910,
,,,1.85737, -90.16910,
,,,1.85984, -97.36910,
,,,1.86231, -99.76910,
,,,1.86478, -91.36910,
,,,1.86725, -86.96910,
,,,1.86972, -89.76910,
,,,1.87219, -97.36910,
,,,1.87466, -96.96910,
,,,1.87713, -96.96910,
,,,1.87960, -94.56910,
,,,1.88207, -96.96910,
,,,1.88454,-100.96910,
,,,1.88701, -99.76910,
,,,1.88948, -94.56910,
,,,1.89195, -97.76910,
,,,1.89442, -96.96910,
,,,1.89689, -92.96910,
,,,1.89936, -94.56910,
,,,1.90183, -94.56910,
,,,1.90430, -99.76910,
,,,1.90677, -99.76910,
,,,1.90924,-100.96910,
,,,1.91171, -94.56910,
,,,1.91418, -85.36910,
,,,1.91665, -82.96910,
,,,1.91912, -85.36910,
,,,1.92159, -87.76910,
,,,1.92406, -96.96910,
,,,1.92653,-100.96910,
,,,1.92900, -92.96910,
,,,1.93147, -92.96910,
,,,1.93394, -99.76910,
,,,1.93641,-100.96910,
,,,1.93888, -93.76910,
,,,1.94135, -91.76910,
,,,1.94382, -92.16910,
,,,1.94629, -97.76910,
,,,1.94876,-100.96910,
,,,1.95123,-100.96910,
,,,1.95370,-100.96910,
,,,1.95617, -93.76910,
,,,1.95864, -91.36910,
,,,1.96111, -96.96910,
,,,1.96358, -97.36910,
,,,1.96605, -94.56910,
,,,1.96852, -91.36910,
,,,1.97099, -89.76910,
,,,1.97346, -88.96910,
,,,1.97593, -95.76910,
,,,1.97840, -92.96910,
,,,1.98087, -90.56910,
,,,1.98334, -92.96910,
,,,1.98581, -88.16910,
,,,1.98828, -87.76910,
,,,1.99075, -90.96910,
,,,1.99322, -87.76910,
,,,1.99569, -93.76910,
,,,1.99816,-100.96910,
,,,2.00063, -94.96910,
,,,2.00310, -94.56910,
,,,2.00557, -96.96910,
,,,2.00804, -92.96910,
,,,2.01051, -99.76910,
,,,2.01298,-100.96910,
,,,2.01545,-100.96910,
,,,2.01792,-100.96910,
,,,2.02039, -99.76910,
,,,2.02286, -95.76910,
,,,2.02533,-100.96910,
,,,2.02780, -99.76910,
,,,2.03027,-100.96910,
,,,2.03274, -95.76910,
,,,2.03521, -97.36910,
,,,2.03768, -90.96910,
,,,2.04015, -90.96910,
,,,2.04262, -93.76910,
,,,2.04509, -97.76910,
,,,2.04756, -97.76910,
,,,2.05003,-100.96910,
,,,2.05250, -96.96910,
,,,2.05497, -99.76910,
,,,2.05744,-100.96910,
,,,2.05991,-100.96910,
,,,2.06238,-100.96910,
,,,2.06485, -91.76910,
,,,2.06732, -88.56910,
,,,2.06979, -91.76910,
,,,2.07226, -93.76910,
,,,2.07473, -94.96910,
,,,2.07720, -94.56910,
,,,2.07967, -94.56910,
,,,2.08214, -93.76910,
,,,2.08461, -89.76910,
,,,2.08708, -92.96910,
,,,2.08955, -92.96910,
