Notebooks/extras/classes_MH/class_6/FFT/RED/ALL0001/F0001MTH.CSV

Record Length,1.024000e+03,,          0.00000,   0.21030,
Sample Interval,2.466067e-03,,          0.00247,  -2.58970,
Trigger Point,0.000000000000e+00,,          0.00493, -46.98970,
,,,          0.00740, -52.98970,
,,,          0.00986, -48.58970,
,,,          0.01233, -55.78970,
Source,MATH,,          0.01480, -48.18970,
Vertical Units,dB,,          0.01726, -47.38970,
Vertical Scale,1.000000e+01,,          0.01973, -48.58970,
Vertical Offset,0.000000e+00,,          0.02219, -46.18970,
Horizontal Units,Hz,,          0.02466, -46.58970,
Horizontal Scale,2.525253e-01,,          0.02713, -52.98970,
Pt Fmt,Y,,          0.02959, -63.78970,
Yzero,-2.698970e+01,,          0.03206, -55.78970,
Probe Atten,1.000000e+00,,          0.03452, -49.78970,
Model Number,TDS2024C,,          0.03699, -52.18970,
Serial Number,C010889,,          0.03946, -58.18970,
Firmware Version,FV:v24.09,,          0.04192, -53.78970,
,,,0.04439, -52.18970,
,,,0.04686, -53.38970,
,,,0.04933, -57.78970,
,,,0.05180, -57.38970,
,,,0.05427, -63.78970,
,,,0.05674, -56.18970,
,,,0.05921, -52.58970,
,,,0.06168, -49.38970,
,,,0.06415, -50.58970,
,,,0.06662, -66.98970,
,,,0.06909, -54.58970,
,,,0.07156, -56.18970,
,,,0.07403, -52.18970,
,,,0.07650, -66.98970,
,,,0.07897, -66.98970,
,,,0.08144, -61.78970,
,,,0.08391, -65.78970,
,,,0.08638, -66.98970,
,,,0.08885, -66.98970,
,,,0.09132, -52.58970,
,,,0.09379, -52.98970,
,,,0.09626, -54.18970,
,,,0.09873, -54.18970,
,,,0.10120, -57.78970,
,,,0.10367, -59.78970,
,,,0.10614, -55.38970,
,,,0.10861, -54.98970,
,,,0.11108, -51.38970,
,,,0.11355, -49.78970,
,,,0.11602, -58.98970,
,,,0.11849, -54.18970,
,,,0.12096, -50.18970,
,,,0.12343, -50.18970,
,,,0.12590, -48.18970,
,,,0.12837, -52.18970,
,,,0.13084, -59.78970,
,,,0.13331, -57.38970,
,,,0.13578, -57.38970,
,,,0.13825, -56.98970,
,,,0.14072, -62.98970,
,,,0.14319, -66.98970,
,,,0.14566, -66.98970,
,,,0.14813, -58.98970,
,,,0.15060, -52.98970,
,,,0.15307, -57.78970,
,,,0.15554, -58.98970,
,,,0.15801, -54.98970,
,,,0.16048, -52.18970,
,,,0.16295, -51.78970,
,,,0.16542, -52.18970,
,,,0.16789, -54.98970,
,,,0.17036, -56.98970,
,,,0.17283, -55.38970,
,,,0.17530, -60.58970,
,,,0.17777, -60.58970,
,,,0.18024, -53.38970,
,,,0.18271, -57.38970,
,,,0.18518, -56.98970,
,,,0.18765, -55.78970,
,,,0.19012, -57.38970,
,,,0.19259, -57.78970,
,,,0.19506, -66.98970,
,,,0.19753, -55.78970,
,,,0.20000, -58.98970,
,,,0.20247, -54.98970,
,,,0.20494, -52.18970,
,,,0.20741, -56.98970,
,,,0.20988, -66.98970,
,,,0.21235, -59.78970,
,,,0.21482, -66.98970,
,,,0.21729, -58.98970,
,,,0.21976, -65.78970,
,,,0.22223, -59.78970,
,,,0.22470, -66.98970,
,,,0.22717, -53.78970,
,,,0.22964, -58.18970,
,,,0.23211, -58.98970,
,,,0.23458, -66.98970,
,,,0.23705, -56.98970,
,,,0.23952, -65.78970,
,,,0.24199, -59.78970,
,,,0.24446, -52.98970,
,,,0.24693, -55.78970,
,,,0.24940, -58.98970,
,,,0.25187, -55.38970,
,,,0.25434, -52.98970,
,,,0.25681, -53.38970,
,,,0.25928, -53.78970,
,,,0.26175, -63.78970,
,,,0.26422, -57.78970,
,,,0.26669, -52.98970,
,,,0.26916, -65.78970,
,,,0.27163, -58.18970,
,,,0.27410, -55.78970,
,,,0.27657, -56.98970,
,,,0.27904, -63.78970,
,,,0.28151, -59.78970,
,,,0.28398, -61.78970,
,,,0.28645, -60.58970,
,,,0.28892, -66.98970,
,,,0.29139, -58.18970,
,,,0.29386, -66.98970,
,,,0.29633, -59.78970,
,,,0.29880, -61.78970,
,,,0.30127, -57.78970,
,,,0.30374, -57.78970,
,,,0.30621, -66.98970,
,,,0.30868, -61.78970,
,,,0.31115, -54.58970,
,,,0.31362, -54.98970,
,,,0.31609, -60.58970,
,,,0.31856, -66.98970,
,,,0.32103, -62.98970,
,,,0.32350, -66.98970,
,,,0.32597, -66.98970,
,,,0.32844, -61.78970,
,,,0.33091, -59.78970,
,,,0.33338, -54.18970,
,,,0.33585, -54.98970,
,,,0.33832, -56.98970,
,,,0.34079, -62.98970,
,,,0.34326, -65.78970,
,,,0.34573, -63.38970,
,,,0.34820, -60.58970,
,,,0.35067, -66.98970,
,,,0.35314, -58.98970,
,,,0.35561, -52.98970,
,,,0.35808, -56.18970,
,,,0.36055, -62.98970,
,,,0.36302, -65.78970,
,,,0.36549, -60.58970,
,,,0.36796, -60.98970,
,,,0.37043, -58.18970,
,,,0.37290, -54.58970,
,,,0.37537, -62.98970,
,,,0.37784, -61.78970,
,,,0.38031, -63.38970,
,,,0.38278, -66.98970,
,,,0.38525, -62.98970,
,,,0.38772, -58.18970,
,,,0.39019, -58.98970,
,,,0.39266, -54.58970,
,,,0.39513, -54.98970,
,,,0.39760, -57.38970,
,,,0.40007, -66.98970,
,,,0.40254, -60.98970,
,,,0.40501, -55.78970,
,,,0.40748, -49.78970,
,,,0.40995, -54.58970,
,,,0.41242, -66.98970,
,,,0.41489, -60.58970,
,,,0.41736, -60.58970,
,,,0.41983, -56.58970,
,,,0.42230, -52.98970,
,,,0.42477, -54.18970,
,,,0.42724, -54.58970,
,,,0.42971, -54.98970,
,,,0.43218, -49.78970,
,,,0.43465, -57.78970,
,,,0.43712, -46.58970,
,,,0.43959, -44.98970,
,,,0.44206, -48.58970,
,,,0.44453, -58.98970,
,,,0.44700, -62.98970,
,,,0.44947, -61.78970,
,,,0.45194, -56.98970,
,,,0.45441, -55.78970,
,,,0.45688, -58.98970,
,,,0.45935, -60.58970,
,,,0.46182, -66.98970,
,,,0.46429, -59.78970,
,,,0.46676, -65.78970,
,,,0.46923, -58.98970,
,,,0.47170, -54.98970,
,,,0.47417, -56.98970,
,,,0.47664, -60.58970,
,,,0.47911, -61.78970,
,,,0.48158, -57.38970,
,,,0.48405, -61.78970,
,,,0.48652, -52.58970,
,,,0.48899, -52.98970,
,,,0.49146, -62.98970,
,,,0.49393, -56.98970,
,,,0.49640, -58.98970,
,,,0.49887, -66.98970,
,,,0.50134, -65.78970,
,,,0.50381, -61.78970,
,,,0.50628, -55.38970,
,,,0.50875, -55.78970,
,,,0.51122, -62.98970,
,,,0.51369, -54.98970,
,,,0.51616, -51.78970,
,,,0.51863, -63.38970,
,,,0.52110, -52.18970,
,,,0.52357, -53.78970,
,,,0.52604, -66.98970,
,,,0.52851, -59.78970,
,,,0.53098, -65.78970,
,,,0.53345, -56.98970,
,,,0.53592, -66.98970,
,,,0.53839, -58.98970,
,,,0.54086, -66.98970,
,,,0.54333, -60.98970,
,,,0.54580, -62.98970,
,,,0.54827, -66.98970,
,,,0.55074, -54.98970,
,,,0.55321, -63.78970,
,,,0.55568, -56.98970,
,,,0.55815, -66.98970,
,,,0.56062, -62.98970,
,,,0.56309, -55.78970,
,,,0.56556, -52.98970,
,,,0.56803, -55.38970,
,,,0.57050, -61.78970,
,,,0.57297, -54.98970,
,,,0.57544, -52.58970,
,,,0.57791, -55.78970,
,,,0.58038, -65.78970,
,,,0.58285, -61.78970,
,,,0.58532, -65.78970,
,,,0.58779, -57.38970,
,,,0.59026, -54.58970,
,,,0.59273, -54.98970,
,,,0.59520, -57.38970,
,,,0.59767, -52.18970,
,,,0.60014, -58.98970,
,,,0.60261, -53.38970,
,,,0.60508, -53.78970,
,,,0.60755, -63.38970,
,,,0.61002, -56.98970,
,,,0.61249, -55.78970,
,,,0.61496, -54.98970,
,,,0.61743, -57.78970,
,,,0.61990, -66.98970,
,,,0.62237, -65.78970,
,,,0.62484, -54.98970,
,,,0.62731, -54.18970,
,,,0.62978, -58.18970,
,,,0.63225, -57.78970,
,,,0.63472, -55.78970,
,,,0.63719, -58.98970,
,,,0.63966, -56.98970,
,,,0.64213, -49.78970,
,,,0.64460, -50.58970,
,,,0.64707, -59.78970,
,,,0.64954, -63.38970,
,,,0.65201, -55.78970,
,,,0.65448, -56.58970,
,,,0.65695, -66.98970,
,,,0.65942, -60.58970,
,,,0.66189, -54.98970,
,,,0.66436, -61.78970,
,,,0.66683, -52.98970,
,,,0.66930, -52.98970,
,,,0.67177, -58.98970,
,,,0.67424, -57.78970,
,,,0.67671, -60.58970,
,,,0.67918, -53.78970,
,,,0.68165, -52.98970,
,,,0.68412, -58.98970,
,,,0.68659, -55.78970,
,,,0.68906, -56.18970,
,,,0.69153, -56.98970,
,,,0.69400, -66.98970,
,,,0.69647, -51.38970,
,,,0.69894, -51.38970,
,,,0.70141, -56.58970,
,,,0.70388, -62.98970,
,,,0.70635, -54.98970,
,,,0.70882, -50.98970,
,,,0.71129, -51.38970,
,,,0.71376, -50.58970,
,,,0.71623, -51.38970,
,,,0.71870, -56.18970,
,,,0.72117, -54.58970,
,,,0.72364, -48.18970,
,,,0.72611, -47.78970,
,,,0.72858, -46.58970,
,,,0.73105, -48.18970,
,,,0.73352, -48.98970,
,,,0.73599, -50.58970,
,,,0.73846, -56.58970,
,,,0.74093, -61.78970,
,,,0.74340, -62.98970,
,,,0.74587, -58.18970,
,,,0.74834, -53.78970,
,,,0.75081, -54.18970,
,,,0.75328, -56.98970,
,,,0.75575, -49.78970,
,,,0.75822, -48.18970,
,,,0.76069, -52.98970,
,,,0.76316, -52.98970,
,,,0.76563, -57.78970,
,,,0.76810, -55.78970,
,,,0.77057, -52.98970,
,,,0.77304, -50.18970,
,,,0.77551, -48.18970,
,,,0.77798, -51.78970,
,,,0.78045, -50.98970,
,,,0.78292, -53.78970,
,,,0.78539, -53.78970,
,,,0.78786, -53.78970,
,,,0.79033, -56.58970,
,,,0.79280, -56.98970,
,,,0.79527, -47.38970,
,,,0.79774, -42.58970,
,,,0.80021, -44.58970,
,,,0.80268, -40.98970,
,,,0.80515, -49.78970,
,,,0.80762, -38.18970,
,,,0.81009, -62.98970,
,,,0.81256, -37.38970,
,,,0.81503, -35.38970,
,,,0.81750, -35.38970,
,,,0.81997, -39.78970,
,,,0.82244, -52.98970,
,,,0.82491, -48.18970,
,,,0.82738, -40.18970,
,,,0.82985, -45.38970,
,,,0.83232, -44.98970,
,,,0.83479, -41.78970,
,,,0.83726, -66.98970,
,,,0.83973, -42.58970,
,,,0.84220, -44.58970,
,,,0.84467, -42.98970,
,,,0.84714, -49.78970,
,,,0.84961, -46.58970,
,,,0.85208, -41.78970,
,,,0.85455, -38.58970,
,,,0.85702, -37.78970,
,,,0.85949, -50.18970,
,,,0.86196, -48.58970,
,,,0.86443, -58.98970,
,,,0.86690, -47.38970,
,,,0.86937, -39.38970,
,,,0.87184, -37.38970,
,,,0.87431, -42.58970,
,,,0.87678, -66.98970,
,,,0.87925, -39.78970,
,,,0.88172, -34.58970,
,,,0.88419, -44.18970,
,,,0.88666, -44.18970,
,,,0.88913, -35.78970,
,,,0.89160, -36.58970,
,,,0.89407, -35.78970,
,,,0.89654, -45.78970,
,,,0.89901, -39.38970,
,,,0.90148, -32.18970,
,,,0.90395, -39.78970,
,,,0.90642, -44.18970,
,,,0.90889, -34.98970,
,,,0.91136, -31.38970,
,,,0.91383, -36.58970,
,,,0.91630, -26.18970,
,,,0.91877, -30.98970,
,,,0.92124, -26.98970,
,,,0.92371, -16.58970,
,,,0.92618, -29.78970,
,,,0.92865, -23.78970,
,,,0.93112, -15.78970,
,,,0.93359, -16.18970,
,,,0.93606, -15.78970,
,,,0.93853,  -8.58970,
,,,0.94100,  -9.38970,
,,,0.94347, -12.98970,
,,,0.94594, -20.58970,
,,,0.94841, -34.98970,
,,,0.95088, -35.78970,
,,,0.95335, -24.58970,
,,,0.95582, -22.18970,
,,,0.95829, -25.78970,
,,,0.96076, -32.58970,
,,,0.96323, -37.38970,
,,,0.96570, -36.18970,
,,,0.96817, -35.78970,
,,,0.97064, -31.38970,
,,,0.97311, -34.98970,
,,,0.97558, -43.78970,
,,,0.97805, -39.78970,
,,,0.98052, -36.18970,
,,,0.98299, -39.78970,
,,,0.98546, -34.98970,
,,,0.98793, -33.38970,
,,,0.99040, -36.58970,
,,,0.99287, -42.98970,
,,,0.99534, -51.38970,
,,,0.99781, -42.18970,
,,,1.00028, -38.98970,
,,,1.00275, -44.58970,
,,,1.00522, -53.38970,
,,,1.00769, -47.78970,
,,,1.01016, -38.18970,
,,,1.01263, -38.18970,
,,,1.01510, -43.38970,
,,,1.01757, -39.78970,
,,,1.02004, -43.78970,
,,,1.02251, -36.98970,
,,,1.02498, -38.58970,
,,,1.02745, -39.78970,
,,,1.02992, -40.98970,
,,,1.03239, -48.58970,
,,,1.03486, -56.98970,
,,,1.03733, -46.58970,
,,,1.03980, -47.38970,
,,,1.04227, -42.98970,
,,,1.04474, -44.18970,
,,,1.04721, -40.98970,
,,,1.04968, -40.58970,
,,,1.05215, -40.58970,
,,,1.05462, -45.38970,
,,,1.05709, -38.58970,
,,,1.05956, -43.78970,
,,,1.06203, -38.98970,
,,,1.06450, -35.38970,
,,,1.06697, -38.98970,
,,,1.06944, -40.58970,
,,,1.07191, -46.58970,
,,,1.07438, -58.98970,
,,,1.07685, -48.98970,
,,,1.07932, -45.38970,
,,,1.08179, -47.78970,
,,,1.08426, -50.98970,
,,,1.08673, -47.78970,
,,,1.08920, -46.58970,
,,,1.09167, -53.78970,
,,,1.09414, -50.18970,
,,,1.09661, -46.58970,
,,,1.09908, -51.38970,
,,,1.10155, -57.38970,
,,,1.10402, -56.58970,
,,,1.10649, -55.78970,
,,,1.10896, -52.58970,
,,,1.11143, -49.78970,
,,,1.11390, -52.98970,
,,,1.11637, -66.98970,
,,,1.11884, -58.18970,
,,,1.12131, -52.98970,
,,,1.12378, -51.78970,
,,,1.12625, -52.98970,
,,,1.12872, -63.38970,
,,,1.13119, -54.98970,
,,,1.13366, -50.98970,
,,,1.13613, -52.18970,
,,,1.13860, -62.98970,
,,,1.14107, -52.18970,
,,,1.14354, -55.38970,
,,,1.14601, -65.78970,
,,,1.14848, -65.78970,
,,,1.15095, -66.98970,
,,,1.15342, -55.38970,
,,,1.15589, -51.78970,
,,,1.15836, -55.38970,
,,,1.16083, -61.78970,
,,,1.16330, -58.98970,
,,,1.16577, -51.78970,
,,,1.16824, -47.78970,
,,,1.17071, -46.58970,
,,,1.17318, -47.38970,
,,,1.17565, -52.98970,
,,,1.17812, -53.78970,
,,,1.18059, -55.78970,
,,,1.18306, -57.38970,
,,,1.18553, -55.78970,
,,,1.18800, -52.18970,
,,,1.19047, -50.58970,
,,,1.19294, -56.98970,
,,,1.19541, -56.98970,
,,,1.19788, -56.98970,
,,,1.20035, -53.78970,
,,,1.20282, -56.98970,
,,,1.20529, -56.58970,
,,,1.20776, -54.98970,
,,,1.21023, -58.18970,
,,,1.21270, -57.78970,
,,,1.21517, -53.78970,
,,,1.21764, -54.18970,
,,,1.22011, -58.18970,
,,,1.22258, -54.58970,
,,,1.22505, -50.58970,
,,,1.22752, -51.38970,
,,,1.22999, -60.58970,
,,,1.23246, -65.78970,
,,,1.23493, -58.18970,
,,,1.23740, -55.78970,
,,,1.23987, -58.98970,
,,,1.24234, -58.18970,
,,,1.24481, -51.78970,
,,,1.24728, -53.38970,
,,,1.24975, -61.78970,
,,,1.25222, -56.98970,
,,,1.25469, -61.78970,
,,,1.25716, -63.78970,
,,,1.25963, -54.98970,
,,,1.26210, -66.98970,
,,,1.26457, -56.98970,
,,,1.26704, -65.78970,
,,,1.26951, -58.98970,
,,,1.27198, -52.98970,
,,,1.27445, -52.58970,
,,,1.27692, -57.78970,
,,,1.27939, -55.78970,
,,,1.28186, -58.98970,
,,,1.28433, -57.38970,
,,,1.28680, -66.98970,
,,,1.28927, -59.78970,
,,,1.29174, -59.78970,
,,,1.29421, -54.98970,
,,,1.29668, -57.78970,
,,,1.29915, -54.98970,
,,,1.30162, -53.78970,
,,,1.30409, -58.98970,
,,,1.30656, -54.98970,
,,,1.30903, -52.98970,
,,,1.31150, -56.98970,
,,,1.31397, -59.78970,
,,,1.31644, -54.58970,
,,,1.31891, -57.38970,
,,,1.32138, -66.98970,
,,,1.32385, -66.98970,
,,,1.32632, -57.78970,
,,,1.32879, -65.78970,
,,,1.33126, -66.98970,
,,,1.33373, -59.78970,
,,,1.33620, -58.98970,
,,,1.33867, -60.58970,
,,,1.34114, -57.38970,
,,,1.34361, -53.78970,
,,,1.34608, -58.98970,
,,,1.34855, -60.58970,
,,,1.35102, -62.98970,
,,,1.35349, -63.38970,
,,,1.35596, -51.78970,
,,,1.35843, -52.58970,
,,,1.36090, -66.98970,
,,,1.36337, -57.38970,
,,,1.36584, -54.18970,
,,,1.36831, -65.78970,
,,,1.37078, -58.98970,
,,,1.37325, -60.98970,
,,,1.37572, -62.98970,
,,,1.37819, -62.98970,
,,,1.38066, -58.18970,
,,,1.38313, -52.98970,
,,,1.38560, -50.58970,
,,,1.38807, -53.78970,
,,,1.39054, -65.78970,
,,,1.39301, -61.78970,
,,,1.39548, -57.38970,
,,,1.39795, -58.98970,
,,,1.40042, -62.98970,
,,,1.40289, -58.98970,
,,,1.40536, -55.78970,
,,,1.40783, -58.98970,
,,,1.41030, -65.78970,
,,,1.41277, -59.78970,
,,,1.41524, -55.38970,
,,,1.41771, -56.98970,
,,,1.42018, -59.78970,
,,,1.42265, -66.98970,
,,,1.42512, -56.58970,
,,,1.42759, -52.18970,
,,,1.43006, -60.58970,
,,,1.43253, -49.38970,
,,,1.43500, -55.38970,
,,,1.43747, -48.18970,
,,,1.43994, -44.18970,
,,,1.44241, -46.18970,
,,,1.44488, -50.58970,
,,,1.44735, -57.38970,
,,,1.44982, -66.98970,
,,,1.45229, -57.38970,
,,,1.45476, -53.78970,
,,,1.45723, -58.98970,
,,,1.45970, -66.98970,
,,,1.46217, -61.78970,
,,,1.46464, -58.98970,
,,,1.46711, -58.98970,
,,,1.46958, -55.78970,
,,,1.47205, -52.98970,
,,,1.47452, -51.78970,
,,,1.47699, -62.98970,
,,,1.47946, -55.78970,
,,,1.48193, -56.98970,
,,,1.48440, -66.98970,
,,,1.48687, -54.98970,
,,,1.48934, -54.58970,
,,,1.49181, -61.78970,
,,,1.49428, -66.98970,
,,,1.49675, -66.98970,
,,,1.49922, -58.98970,
,,,1.50169, -63.78970,
,,,1.50416, -65.78970,
,,,1.50663, -66.98970,
,,,1.50910, -62.98970,
,,,1.51157, -55.78970,
,,,1.51404, -54.18970,
,,,1.51651, -63.78970,
,,,1.51898, -66.98970,
,,,1.52145, -66.98970,
,,,1.52392, -65.78970,
,,,1.52639, -66.98970,
,,,1.52886, -59.78970,
,,,1.53133, -61.78970,
,,,1.53380, -63.38970,
,,,1.53627, -63.78970,
,,,1.53874, -66.98970,
,,,1.54121, -65.78970,
,,,1.54368, -62.98970,
,,,1.54615, -55.78970,
,,,1.54862, -63.78970,
,,,1.55109, -66.98970,
,,,1.55356, -66.98970,
,,,1.55603, -66.98970,
,,,1.55850, -55.78970,
,,,1.56097, -53.38970,
,,,1.56344, -62.98970,
,,,1.56591, -66.98970,
,,,1.56838, -61.78970,
,,,1.57085, -65.78970,
,,,1.57332, -56.98970,
,,,1.57579, -57.38970,
,,,1.57826, -62.98970,
,,,1.58073, -63.38970,
,,,1.58320, -66.98970,
,,,1.58567, -62.98970,
,,,1.58814, -66.98970,
,,,1.59061, -63.38970,
,,,1.59308, -57.78970,
,,,1.59555, -55.78970,
,,,1.59802, -66.98970,
,,,1.60049, -63.38970,
,,,1.60296, -66.98970,
,,,1.60543, -55.78970,
,,,1.60790, -58.18970,
,,,1.61037, -66.98970,
,,,1.61284, -62.98970,
,,,1.61531, -56.98970,
,,,1.61778, -54.98970,
,,,1.62025, -65.78970,
,,,1.62272, -56.58970,
,,,1.62519, -60.98970,
,,,1.62766, -54.98970,
,,,1.63013, -58.18970,
,,,1.63260, -55.78970,
,,,1.63507, -52.18970,
,,,1.63754, -61.78970,
,,,1.64001, -52.58970,
,,,1.64248, -55.38970,
,,,1.64495, -66.98970,
,,,1.64742, -65.78970,
,,,1.64989, -66.98970,
,,,1.65236, -61.78970,
,,,1.65483, -62.98970,
,,,1.65730, -66.98970,
,,,1.65977, -60.58970,
,,,1.66224, -57.78970,
,,,1.66471, -66.98970,
,,,1.66718, -60.98970,
,,,1.66965, -66.98970,
,,,1.67212, -57.38970,
,,,1.67459, -53.78970,
,,,1.67706, -54.98970,
,,,1.67953, -61.78970,
,,,1.68200, -55.78970,
,,,1.68447, -55.78970,
,,,1.68694, -66.98970,
,,,1.68941, -54.58970,
,,,1.69188, -52.58970,
,,,1.69435, -55.78970,
,,,1.69682, -56.98970,
,,,1.69929, -57.38970,
,,,1.70176, -57.78970,
,,,1.70423, -65.78970,
,,,1.70670, -55.78970,
,,,1.70917, -57.38970,
,,,1.71164, -60.58970,
,,,1.71411, -58.18970,
,,,1.71658, -53.78970,
,,,1.71905, -60.98970,
,,,1.72152, -66.98970,
,,,1.72399, -61.78970,
,,,1.72646, -63.78970,
,,,1.72893, -66.98970,
,,,1.73140, -55.78970,
,,,1.73387, -52.98970,
,,,1.73634, -51.78970,
,,,1.73881, -52.18970,
,,,1.74128, -57.38970,
,,,1.74375, -58.98970,
,,,1.74622, -62.98970,
,,,1.74869, -57.78970,
,,,1.75116, -61.78970,
,,,1.75363, -63.78970,
,,,1.75610, -55.78970,
,,,1.75857, -55.38970,
,,,1.76104, -54.98970,
,,,1.76351, -56.58970,
,,,1.76598, -54.98970,
,,,1.76845, -48.58970,
,,,1.77092, -45.78970,
,,,1.77339, -47.78970,
,,,1.77586, -51.38970,
,,,1.77833, -56.98970,
,,,1.78080, -58.98970,
,,,1.78327, -58.98970,
,,,1.78574, -60.58970,
,,,1.78821, -55.78970,
,,,1.79068, -52.18970,
,,,1.79315, -55.38970,
,,,1.79562, -66.98970,
,,,1.79809, -62.98970,
,,,1.80056, -58.98970,
,,,1.80303, -60.98970,
,,,1.80550, -57.38970,
,,,1.80797, -58.98970,
,,,1.81044, -62.98970,
,,,1.81291, -65.78970,
,,,1.81538, -66.98970,
,,,1.81785, -56.18970,
,,,1.82032, -54.18970,
,,,1.82279, -55.78970,
,,,1.82526, -55.38970,
,,,1.82773, -61.78970,
,,,1.83020, -54.98970,
,,,1.83267, -50.98970,
,,,1.83514, -58.98970,
,,,1.83761, -61.78970,
,,,1.84008, -63.78970,
,,,1.84255, -60.98970,
,,,1.84502, -63.38970,
,,,1.84749, -66.98970,
,,,1.84996, -58.98970,
,,,1.85243, -53.78970,
,,,1.85490, -60.98970,
,,,1.85737, -58.18970,
,,,1.85984, -66.98970,
,,,1.86231, -58.18970,
,,,1.86478, -52.18970,
,,,1.86725, -53.78970,
,,,1.86972, -60.58970,
,,,1.87219, -57.78970,
,,,1.87466, -63.38970,
,,,1.87713, -66.98970,
,,,1.87960, -58.18970,
,,,1.88207, -50.98970,
,,,1.88454, -50.98970,
,,,1.88701, -51.38970,
,,,1.88948, -54.98970,
,,,1.89195, -61.78970,
,,,1.89442, -65.78970,
,,,1.89689, -66.98970,
,,,1.89936, -59.78970,
,,,1.90183, -57.38970,
,,,1.90430, -56.98970,
,,,1.90677, -57.38970,
,,,1.90924, -53.78970,
,,,1.91171, -56.18970,
,,,1.91418, -55.78970,
,,,1.91665, -52.98970,
,,,1.91912, -52.58970,
,,,1.92159, -57.38970,
,,,1.92406, -54.18970,
,,,1.92653, -56.18970,
,,,1.92900, -61.78970,
,,,1.93147, -63.38970,
,,,1.93394, -54.98970,
,,,1.93641, -66.98970,
,,,1.93888, -62.98970,
,,,1.94135, -56.58970,
,,,1.94382, -55.78970,
,,,1.94629, -62.98970,
,,,1.94876, -63.78970,
,,,1.95123, -55.78970,
,,,1.95370, -56.98970,
,,,1.95617, -63.38970,
,,,1.95864, -58.98970,
,,,1.96111, -57.78970,
,,,1.96358, -58.98970,
,,,1.96605, -59.78970,
,,,1.96852, -56.98970,
,,,1.97099, -58.98970,
,,,1.97346, -61.78970,
,,,1.97593, -63.38970,
,,,1.97840, -53.78970,
,,,1.98087, -52.98970,
,,,1.98334, -53.38970,
,,,1.98581, -52.98970,
,,,1.98828, -53.78970,
,,,1.99075, -60.58970,
,,,1.99322, -54.18970,
,,,1.99569, -56.98970,
,,,1.99816, -59.78970,
,,,2.00063, -60.58970,
,,,2.00310, -60.98970,
,,,2.00557, -56.98970,
,,,2.00804, -59.78970,
,,,2.01051, -66.98970,
,,,2.01298, -65.78970,
,,,2.01545, -66.98970,
,,,2.01792, -66.98970,
,,,2.02039, -57.38970,
,,,2.02286, -54.18970,
,,,2.02533, -56.58970,
,,,2.02780, -55.78970,
,,,2.03027, -58.18970,
,,,2.03274, -66.98970,
,,,2.03521, -60.58970,
,,,2.03768, -56.98970,
,,,2.04015, -58.98970,
,,,2.04262, -63.78970,
,,,2.04509, -65.78970,
,,,2.04756, -61.78970,
,,,2.05003, -58.98970,
,,,2.05250, -58.98970,
,,,2.05497, -58.98970,
,,,2.05744, -65.78970,
,,,2.05991, -58.98970,
,,,2.06238, -58.98970,
,,,2.06485, -54.18970,
,,,2.06732, -58.18970,
,,,2.06979, -66.98970,
,,,2.07226, -66.98970,
,,,2.07473, -57.78970,
,,,2.07720, -55.78970,
,,,2.07967, -61.78970,
,,,2.08214, -56.98970,
,,,2.08461, -50.18970,
,,,2.08708, -50.98970,
,,,2.08955, -54.18970,
