Notebooks/extras/classes_MH/class_6/FFT/RG/ALL0002/F0002MTH.CSV

Record Length,1.024000e+03,,          0.00000, -30.14850,
Sample Interval,2.466067e-03,,          0.00247, -32.94850,
Trigger Point,0.000000000000e+00,,          0.00493, -94.94850,
,,,          0.00740, -93.74850,
,,,          0.00986, -83.74850,
,,,          0.01233, -78.54850,
Source,MATH,,          0.01480, -74.14850,
Vertical Units,dB,,          0.01726, -76.54850,
Vertical Scale,1.000000e+01,,          0.01973, -83.74850,
Vertical Offset,0.000000e+00,,          0.02219, -90.94850,
Horizontal Units,Hz,,          0.02466, -88.54850,
Horizontal Scale,2.525253e-01,,          0.02713, -90.94850,
Pt Fmt,Y,,          0.02959, -77.74850,
Yzero,-5.494850e+01,,          0.03206, -75.34850,
Probe Atten,1.000000e+00,,          0.03452, -78.94850,
Model Number,TDS2024C,,          0.03699, -85.34850,
Serial Number,C010889,,          0.03946, -90.94850,
Firmware Version,FV:v24.09,,          0.04192, -93.74850,
,,,0.04439, -89.74850,
,,,0.04686, -82.94850,
,,,0.04933, -83.74850,
,,,0.05180, -84.94850,
,,,0.05427, -90.94850,
,,,0.05674, -83.74850,
,,,0.05921, -89.74850,
,,,0.06168, -87.74850,
,,,0.06415, -87.74850,
,,,0.06662, -94.94850,
,,,0.06909, -89.74850,
,,,0.07156, -93.74850,
,,,0.07403, -84.94850,
,,,0.07650, -82.14850,
,,,0.07897, -84.94850,
,,,0.08144, -93.74850,
,,,0.08391, -90.94850,
,,,0.08638, -82.94850,
,,,0.08885, -80.14850,
,,,0.09132, -84.94850,
,,,0.09379, -86.14850,
,,,0.09626, -81.34850,
,,,0.09873, -81.74850,
,,,0.10120, -83.74850,
,,,0.10367, -88.54850,
,,,0.10614, -88.54850,
,,,0.10861, -86.94850,
,,,0.11108, -85.34850,
,,,0.11355, -93.74850,
,,,0.11602, -88.94850,
,,,0.11849, -89.74850,
,,,0.12096, -87.74850,
,,,0.12343, -90.94850,
,,,0.12590, -91.34850,
,,,0.12837, -93.74850,
,,,0.13084, -94.94850,
,,,0.13331, -87.74850,
,,,0.13578, -84.94850,
,,,0.13825, -82.94850,
,,,0.14072, -82.14850,
,,,0.14319, -83.74850,
,,,0.14566, -91.34850,
,,,0.14813, -94.94850,
,,,0.15060, -90.94850,
,,,0.15307, -82.54850,
,,,0.15554, -82.14850,
,,,0.15801, -87.74850,
,,,0.16048, -90.94850,
,,,0.16295, -88.54850,
,,,0.16542, -85.34850,
,,,0.16789, -85.34850,
,,,0.17036, -94.94850,
,,,0.17283, -86.94850,
,,,0.17530, -86.94850,
,,,0.17777, -89.74850,
,,,0.18024, -88.54850,
,,,0.18271, -90.94850,
,,,0.18518, -84.94850,
,,,0.18765, -85.34850,
,,,0.19012, -81.74850,
,,,0.19259, -81.74850,
,,,0.19506, -87.74850,
,,,0.19753, -87.74850,
,,,0.20000, -84.54850,
,,,0.20247, -88.54850,
,,,0.20494, -94.94850,
,,,0.20741, -84.54850,
,,,0.20988, -81.74850,
,,,0.21235, -85.34850,
,,,0.21482, -83.74850,
,,,0.21729, -80.14850,
,,,0.21976, -86.94850,
,,,0.22223, -86.94850,
,,,0.22470, -85.34850,
,,,0.22717, -86.14850,
,,,0.22964, -84.54850,
,,,0.23211, -84.54850,
,,,0.23458, -91.34850,
,,,0.23705, -88.54850,
,,,0.23952, -84.94850,
,,,0.24199, -94.94850,
,,,0.24446, -84.54850,
,,,0.24693, -89.74850,
,,,0.24940, -89.74850,
,,,0.25187, -84.94850,
,,,0.25434, -85.74850,
,,,0.25681, -82.54850,
,,,0.25928, -79.34850,
,,,0.26175, -81.74850,
,,,0.26422, -86.94850,
,,,0.26669, -89.74850,
,,,0.26916, -93.74850,
,,,0.27163, -94.94850,
,,,0.27410, -93.74850,
,,,0.27657, -85.74850,
,,,0.27904, -84.94850,
,,,0.28151, -94.94850,
,,,0.28398, -80.14850,
,,,0.28645, -80.54850,
,,,0.28892, -86.94850,
,,,0.29139, -87.74850,
,,,0.29386, -89.74850,
,,,0.29633, -86.94850,
,,,0.29880, -83.74850,
,,,0.30127, -86.94850,
,,,0.30374, -94.94850,
,,,0.30621, -93.74850,
,,,0.30868, -91.74850,
,,,0.31115, -85.34850,
,,,0.31362, -87.74850,
,,,0.31609, -91.34850,
,,,0.31856, -82.94850,
,,,0.32103, -85.34850,
,,,0.32350, -90.94850,
,,,0.32597, -89.74850,
,,,0.32844, -94.94850,
,,,0.33091, -94.94850,
,,,0.33338, -86.94850,
,,,0.33585, -83.74850,
,,,0.33832, -82.54850,
,,,0.34079, -82.94850,
,,,0.34326, -90.94850,
,,,0.34573, -89.74850,
,,,0.34820, -94.94850,
,,,0.35067, -93.74850,
,,,0.35314, -86.94850,
,,,0.35561, -88.54850,
,,,0.35808, -94.94850,
,,,0.36055, -87.74850,
,,,0.36302, -91.74850,
,,,0.36549, -93.74850,
,,,0.36796, -85.74850,
,,,0.37043, -89.74850,
,,,0.37290, -89.74850,
,,,0.37537, -83.74850,
,,,0.37784, -87.74850,
,,,0.38031, -94.94850,
,,,0.38278, -94.94850,
,,,0.38525, -83.74850,
,,,0.38772, -90.94850,
,,,0.39019, -90.94850,
,,,0.39266, -94.94850,
,,,0.39513, -90.94850,
,,,0.39760, -89.74850,
,,,0.40007, -85.34850,
,,,0.40254, -85.34850,
,,,0.40501, -89.74850,
,,,0.40748, -84.54850,
,,,0.40995, -88.54850,
,,,0.41242, -83.74850,
,,,0.41489, -82.54850,
,,,0.41736, -81.74850,
,,,0.41983, -85.34850,
,,,0.42230, -80.14850,
,,,0.42477, -73.74850,
,,,0.42724, -76.14850,
,,,0.42971, -89.74850,
,,,0.43218, -80.94850,
,,,0.43465, -80.54850,
,,,0.43712, -76.14850,
,,,0.43959, -78.14850,
,,,0.44206, -83.34850,
,,,0.44453, -94.94850,
,,,0.44700, -88.54850,
,,,0.44947, -85.34850,
,,,0.45194, -83.74850,
,,,0.45441, -85.34850,
,,,0.45688, -88.54850,
,,,0.45935, -91.34850,
,,,0.46182, -83.74850,
,,,0.46429, -82.94850,
,,,0.46676, -94.94850,
,,,0.46923, -94.94850,
,,,0.47170, -94.94850,
,,,0.47417, -86.94850,
,,,0.47664, -93.74850,
,,,0.47911, -94.94850,
,,,0.48158, -88.54850,
,,,0.48405, -81.74850,
,,,0.48652, -82.14850,
,,,0.48899, -83.74850,
,,,0.49146, -83.74850,
,,,0.49393, -82.94850,
,,,0.49640, -82.94850,
,,,0.49887, -93.74850,
,,,0.50134, -94.94850,
,,,0.50381, -86.94850,
,,,0.50628, -85.34850,
,,,0.50875, -88.54850,
,,,0.51122, -84.94850,
,,,0.51369, -86.14850,
,,,0.51616, -90.94850,
,,,0.51863, -83.74850,
,,,0.52110, -79.74850,
,,,0.52357, -85.34850,
,,,0.52604, -90.94850,
,,,0.52851, -89.74850,
,,,0.53098, -82.94850,
,,,0.53345, -83.74850,
,,,0.53592, -82.94850,
,,,0.53839, -87.74850,
,,,0.54086, -82.54850,
,,,0.54333, -81.74850,
,,,0.54580, -79.74850,
,,,0.54827, -80.14850,
,,,0.55074, -80.94850,
,,,0.55321, -77.34850,
,,,0.55568, -80.14850,
,,,0.55815, -88.94850,
,,,0.56062, -86.94850,
,,,0.56309, -88.54850,
,,,0.56556, -83.74850,
,,,0.56803, -80.94850,
,,,0.57050, -85.34850,
,,,0.57297, -85.74850,
,,,0.57544, -81.34850,
,,,0.57791, -78.54850,
,,,0.58038, -85.74850,
,,,0.58285, -93.74850,
,,,0.58532, -93.74850,
,,,0.58779, -93.74850,
,,,0.59026, -85.74850,
,,,0.59273, -85.34850,
,,,0.59520, -82.94850,
,,,0.59767, -86.94850,
,,,0.60014, -94.94850,
,,,0.60261, -90.94850,
,,,0.60508, -90.94850,
,,,0.60755, -84.14850,
,,,0.61002, -81.74850,
,,,0.61249, -85.74850,
,,,0.61496, -82.14850,
,,,0.61743, -80.94850,
,,,0.61990, -90.94850,
,,,0.62237, -90.94850,
,,,0.62484, -85.74850,
,,,0.62731, -83.74850,
,,,0.62978, -79.74850,
,,,0.63225, -83.74850,
,,,0.63472, -90.94850,
,,,0.63719, -94.94850,
,,,0.63966, -89.74850,
,,,0.64213, -84.94850,
,,,0.64460, -82.94850,
,,,0.64707, -88.54850,
,,,0.64954, -81.74850,
,,,0.65201, -81.74850,
,,,0.65448, -87.74850,
,,,0.65695, -83.74850,
,,,0.65942, -82.94850,
,,,0.66189, -79.34850,
,,,0.66436, -76.54850,
,,,0.66683, -77.34850,
,,,0.66930, -88.54850,
,,,0.67177, -93.74850,
,,,0.67424, -85.74850,
,,,0.67671, -82.54850,
,,,0.67918, -82.94850,
,,,0.68165, -85.34850,
,,,0.68412, -86.94850,
,,,0.68659, -82.94850,
,,,0.68906, -80.14850,
,,,0.69153, -82.94850,
,,,0.69400, -93.74850,
,,,0.69647, -90.94850,
,,,0.69894, -83.74850,
,,,0.70141, -83.74850,
,,,0.70388, -88.94850,
,,,0.70635, -81.74850,
,,,0.70882, -88.54850,
,,,0.71129, -94.94850,
,,,0.71376, -81.74850,
,,,0.71623, -76.94850,
,,,0.71870, -78.94850,
,,,0.72117, -86.14850,
,,,0.72364, -88.54850,
,,,0.72611, -79.74850,
,,,0.72858, -78.94850,
,,,0.73105, -80.14850,
,,,0.73352, -83.34850,
,,,0.73599, -80.14850,
,,,0.73846, -79.34850,
,,,0.74093, -86.94850,
,,,0.74340, -80.94850,
,,,0.74587, -79.74850,
,,,0.74834, -78.54850,
,,,0.75081, -80.14850,
,,,0.75328, -79.74850,
,,,0.75575, -80.94850,
,,,0.75822, -88.54850,
,,,0.76069, -84.94850,
,,,0.76316, -80.94850,
,,,0.76563, -84.54850,
,,,0.76810, -82.54850,
,,,0.77057, -80.54850,
,,,0.77304, -85.74850,
,,,0.77551, -91.34850,
,,,0.77798, -80.54850,
,,,0.78045, -75.34850,
,,,0.78292, -76.94850,
,,,0.78539, -84.94850,
,,,0.78786, -83.34850,
,,,0.79033, -83.74850,
,,,0.79280, -76.54850,
,,,0.79527, -72.94850,
,,,0.79774, -74.14850,
,,,0.80021, -71.74850,
,,,0.80268, -70.94850,
,,,0.80515, -74.54850,
,,,0.80762, -74.94850,
,,,0.81009, -74.54850,
,,,0.81256, -76.14850,
,,,0.81503, -78.14850,
,,,0.81750, -75.34850,
,,,0.81997, -76.14850,
,,,0.82244, -72.14850,
,,,0.82491, -75.34850,
,,,0.82738, -76.14850,
,,,0.82985, -75.34850,
,,,0.83232, -80.94850,
,,,0.83479, -79.34850,
,,,0.83726, -77.34850,
,,,0.83973, -80.94850,
,,,0.84220, -75.34850,
,,,0.84467, -72.14850,
,,,0.84714, -79.34850,
,,,0.84961, -79.74850,
,,,0.85208, -78.94850,
,,,0.85455, -76.94850,
,,,0.85702, -68.54850,
,,,0.85949, -67.34850,
,,,0.86196, -73.34850,
,,,0.86443, -78.14850,
,,,0.86690, -72.94850,
,,,0.86937, -71.74850,
,,,0.87184, -75.34850,
,,,0.87431, -75.34850,
,,,0.87678, -72.54850,
,,,0.87925, -76.54850,
,,,0.88172, -80.94850,
,,,0.88419, -80.54850,
,,,0.88666, -79.74850,
,,,0.88913, -78.54850,
,,,0.89160, -78.94850,
,,,0.89407, -74.94850,
,,,0.89654, -70.94850,
,,,0.89901, -70.54850,
,,,0.90148, -63.74850,
,,,0.90395, -62.94850,
,,,0.90642, -65.74850,
,,,0.90889, -62.54850,
,,,0.91136, -54.94850,
,,,0.91383, -54.94850,
,,,0.91630, -69.74850,
,,,0.91877, -54.94850,
,,,0.92124, -54.94850,
,,,0.92371, -53.34850,
,,,0.92618, -42.54850,
,,,0.92865, -42.94850,
,,,0.93112, -52.14850,
,,,0.93359, -52.94850,
,,,0.93606, -52.94850,
,,,0.93853, -60.94850,
,,,0.94100, -68.94850,
,,,0.94347, -58.94850,
,,,0.94594, -59.34850,
,,,0.94841, -64.14850,
,,,0.95088, -68.94850,
,,,0.95335, -74.14850,
,,,0.95582, -85.74850,
,,,0.95829, -68.54850,
,,,0.96076, -63.74850,
,,,0.96323, -66.94850,
,,,0.96570, -79.74850,
,,,0.96817, -81.74850,
,,,0.97064, -76.14850,
,,,0.97311, -67.74850,
,,,0.97558, -68.54850,
,,,0.97805, -73.74850,
,,,0.98052, -72.54850,
,,,0.98299, -72.54850,
,,,0.98546, -79.34850,
,,,0.98793, -72.54850,
,,,0.99040, -68.14850,
,,,0.99287, -68.94850,
,,,0.99534, -81.74850,
,,,0.99781, -73.34850,
,,,1.00028, -72.14850,
,,,1.00275, -67.74850,
,,,1.00522, -70.54850,
,,,1.00769, -74.14850,
,,,1.01016, -70.54850,
,,,1.01263, -65.74850,
,,,1.01510, -70.14850,
,,,1.01757, -82.54850,
,,,1.02004, -78.94850,
,,,1.02251, -74.94850,
,,,1.02498, -76.94850,
,,,1.02745, -74.94850,
,,,1.02992, -75.74850,
,,,1.03239, -72.54850,
,,,1.03486, -76.14850,
,,,1.03733, -73.34850,
,,,1.03980, -74.54850,
,,,1.04227, -73.74850,
,,,1.04474, -72.94850,
,,,1.04721, -79.74850,
,,,1.04968, -75.34850,
,,,1.05215, -74.14850,
,,,1.05462, -63.74850,
,,,1.05709, -66.14850,
,,,1.05956, -64.14850,
,,,1.06203, -62.14850,
,,,1.06450, -54.94850,
,,,1.06697, -54.94850,
,,,1.06944, -79.74850,
,,,1.07191, -57.34850,
,,,1.07438, -56.14850,
,,,1.07685, -52.14850,
,,,1.07932, -44.14850,
,,,1.08179, -46.14850,
,,,1.08426, -55.74850,
,,,1.08673, -52.94850,
,,,1.08920, -54.14850,
,,,1.09167, -63.34850,
,,,1.09414, -66.54850,
,,,1.09661, -58.94850,
,,,1.09908, -61.34850,
,,,1.10155, -70.94850,
,,,1.10402, -68.14850,
,,,1.10649, -64.14850,
,,,1.10896, -69.74850,
,,,1.11143, -75.34850,
,,,1.11390, -68.14850,
,,,1.11637, -71.74850,
,,,1.11884, -74.54850,
,,,1.12131, -75.34850,
,,,1.12378, -79.34850,
,,,1.12625, -68.54850,
,,,1.12872, -72.94850,
,,,1.13119, -82.14850,
,,,1.13366, -72.54850,
,,,1.13613, -71.74850,
,,,1.13860, -72.54850,
,,,1.14107, -71.74850,
,,,1.14354, -71.34850,
,,,1.14601, -73.34850,
,,,1.14848, -94.94850,
,,,1.15095, -78.94850,
,,,1.15342, -78.14850,
,,,1.15589, -72.94850,
,,,1.15836, -76.14850,
,,,1.16083, -72.54850,
,,,1.16330, -77.34850,
,,,1.16577, -76.94850,
,,,1.16824, -78.94850,
,,,1.17071, -85.34850,
,,,1.17318, -82.14850,
,,,1.17565, -83.74850,
,,,1.17812, -74.94850,
,,,1.18059, -74.14850,
,,,1.18306, -81.74850,
,,,1.18553, -75.74850,
,,,1.18800, -78.14850,
,,,1.19047, -74.94850,
,,,1.19294, -77.74850,
,,,1.19541, -74.94850,
,,,1.19788, -72.54850,
,,,1.20035, -78.14850,
,,,1.20282, -75.74850,
,,,1.20529, -71.74850,
,,,1.20776, -80.14850,
,,,1.21023, -80.94850,
,,,1.21270, -77.34850,
,,,1.21517, -74.94850,
,,,1.21764, -72.14850,
,,,1.22011, -71.74850,
,,,1.22258, -72.94850,
,,,1.22505, -77.34850,
,,,1.22752, -83.74850,
,,,1.22999, -85.34850,
,,,1.23246, -82.14850,
,,,1.23493, -75.34850,
,,,1.23740, -78.54850,
,,,1.23987, -94.94850,
,,,1.24234, -78.94850,
,,,1.24481, -82.54850,
,,,1.24728, -85.34850,
,,,1.24975, -94.94850,
,,,1.25222, -87.74850,
,,,1.25469, -84.54850,
,,,1.25716, -74.94850,
,,,1.25963, -74.94850,
,,,1.26210, -81.74850,
,,,1.26457, -90.94850,
,,,1.26704, -91.74850,
,,,1.26951, -88.94850,
,,,1.27198, -81.74850,
,,,1.27445, -77.34850,
,,,1.27692, -74.54850,
,,,1.27939, -77.34850,
,,,1.28186, -82.14850,
,,,1.28433, -85.74850,
,,,1.28680, -84.94850,
,,,1.28927, -88.54850,
,,,1.29174, -94.94850,
,,,1.29421, -86.14850,
,,,1.29668, -82.94850,
,,,1.29915, -90.94850,
,,,1.30162, -78.54850,
,,,1.30409, -78.94850,
,,,1.30656, -90.94850,
,,,1.30903, -90.94850,
,,,1.31150, -88.54850,
,,,1.31397, -94.94850,
,,,1.31644, -83.74850,
,,,1.31891, -82.14850,
,,,1.32138, -86.14850,
,,,1.32385, -84.54850,
,,,1.32632, -84.94850,
,,,1.32879, -85.34850,
,,,1.33126, -82.94850,
,,,1.33373, -93.74850,
,,,1.33620, -84.94850,
,,,1.33867, -86.94850,
,,,1.34114, -80.94850,
,,,1.34361, -79.34850,
,,,1.34608, -81.74850,
,,,1.34855, -82.14850,
,,,1.35102, -82.94850,
,,,1.35349, -89.74850,
,,,1.35596, -83.74850,
,,,1.35843, -85.34850,
,,,1.36090, -83.34850,
,,,1.36337, -86.14850,
,,,1.36584, -93.74850,
,,,1.36831, -89.74850,
,,,1.37078, -93.74850,
,,,1.37325, -94.94850,
,,,1.37572, -94.94850,
,,,1.37819, -94.94850,
,,,1.38066, -94.94850,
,,,1.38313, -85.74850,
,,,1.38560, -82.14850,
,,,1.38807, -80.94850,
,,,1.39054, -83.74850,
,,,1.39301, -91.34850,
,,,1.39548, -84.94850,
,,,1.39795, -88.54850,
,,,1.40042, -86.94850,
,,,1.40289, -83.74850,
,,,1.40536, -80.94850,
,,,1.40783, -85.34850,
,,,1.41030, -94.94850,
,,,1.41277, -94.94850,
,,,1.41524, -93.74850,
,,,1.41771, -94.94850,
,,,1.42018, -88.54850,
,,,1.42265, -84.94850,
,,,1.42512, -90.94850,
,,,1.42759, -83.74850,
,,,1.43006, -80.94850,
,,,1.43253, -82.54850,
,,,1.43500, -87.74850,
,,,1.43747, -94.94850,
,,,1.43994, -90.94850,
,,,1.44241, -83.74850,
,,,1.44488, -84.54850,
,,,1.44735, -89.74850,
,,,1.44982, -83.74850,
,,,1.45229, -82.14850,
,,,1.45476, -90.94850,
,,,1.45723, -94.94850,
,,,1.45970, -93.74850,
,,,1.46217, -93.74850,
,,,1.46464, -86.94850,
,,,1.46711, -83.74850,
,,,1.46958, -80.54850,
,,,1.47205, -81.34850,
,,,1.47452, -84.54850,
,,,1.47699, -87.74850,
,,,1.47946, -88.94850,
,,,1.48193, -94.94850,
,,,1.48440, -86.94850,
,,,1.48687, -84.14850,
,,,1.48934, -85.74850,
,,,1.49181, -83.74850,
,,,1.49428, -81.74850,
,,,1.49675, -83.74850,
,,,1.49922, -85.74850,
,,,1.50169, -86.14850,
,,,1.50416, -82.94850,
,,,1.50663, -81.74850,
,,,1.50910, -90.94850,
,,,1.51157, -93.74850,
,,,1.51404, -91.34850,
,,,1.51651, -87.74850,
,,,1.51898, -94.94850,
,,,1.52145, -93.74850,
,,,1.52392, -93.74850,
,,,1.52639, -88.54850,
,,,1.52886, -88.54850,
,,,1.53133, -85.74850,
,,,1.53380, -89.74850,
,,,1.53627, -89.74850,
,,,1.53874, -86.94850,
,,,1.54121, -84.54850,
,,,1.54368, -86.94850,
,,,1.54615, -93.74850,
,,,1.54862, -86.94850,
,,,1.55109, -93.74850,
,,,1.55356, -88.94850,
,,,1.55603, -85.74850,
,,,1.55850, -84.54850,
,,,1.56097, -91.34850,
,,,1.56344, -87.74850,
,,,1.56591, -86.94850,
,,,1.56838, -77.74850,
,,,1.57085, -79.74850,
,,,1.57332, -85.34850,
,,,1.57579, -85.74850,
,,,1.57826, -79.34850,
,,,1.58073, -75.74850,
,,,1.58320, -76.94850,
,,,1.58567, -78.54850,
,,,1.58814, -83.34850,
,,,1.59061, -85.74850,
,,,1.59308, -84.54850,
,,,1.59555, -84.94850,
,,,1.59802, -81.34850,
,,,1.60049, -82.94850,
,,,1.60296, -94.94850,
,,,1.60543, -84.94850,
,,,1.60790, -83.74850,
,,,1.61037, -88.54850,
,,,1.61284, -93.74850,
,,,1.61531, -91.74850,
,,,1.61778, -94.94850,
,,,1.62025, -90.94850,
,,,1.62272, -86.94850,
,,,1.62519, -82.54850,
,,,1.62766, -94.94850,
,,,1.63013, -94.94850,
,,,1.63260, -86.94850,
,,,1.63507, -94.94850,
,,,1.63754, -83.74850,
,,,1.64001, -90.94850,
,,,1.64248, -93.74850,
,,,1.64495, -86.94850,
,,,1.64742, -86.94850,
,,,1.64989, -91.74850,
,,,1.65236, -94.94850,
,,,1.65483, -90.94850,
,,,1.65730, -86.94850,
,,,1.65977, -89.74850,
,,,1.66224, -88.54850,
,,,1.66471, -93.74850,
,,,1.66718, -93.74850,
,,,1.66965, -85.74850,
,,,1.67212, -79.34850,
,,,1.67459, -82.54850,
,,,1.67706, -91.74850,
,,,1.67953, -82.94850,
,,,1.68200, -81.74850,
,,,1.68447, -82.14850,
,,,1.68694, -86.94850,
,,,1.68941, -89.74850,
,,,1.69188, -94.94850,
,,,1.69435, -85.34850,
,,,1.69682, -85.34850,
,,,1.69929, -91.34850,
,,,1.70176, -94.94850,
,,,1.70423, -94.94850,
,,,1.70670, -94.94850,
,,,1.70917, -84.54850,
,,,1.71164, -89.74850,
,,,1.71411, -91.74850,
,,,1.71658, -85.34850,
,,,1.71905, -82.94850,
,,,1.72152, -79.74850,
,,,1.72399, -80.14850,
,,,1.72646, -83.74850,
,,,1.72893, -89.74850,
,,,1.73140, -83.74850,
,,,1.73387, -85.74850,
,,,1.73634, -86.94850,
,,,1.73881, -82.94850,
,,,1.74128, -84.14850,
,,,1.74375, -89.74850,
,,,1.74622, -86.94850,
,,,1.74869, -93.74850,
,,,1.75116, -90.94850,
,,,1.75363, -86.14850,
,,,1.75610, -83.74850,
,,,1.75857, -83.74850,
,,,1.76104, -86.14850,
,,,1.76351, -86.14850,
,,,1.76598, -89.74850,
,,,1.76845, -94.94850,
,,,1.77092, -93.74850,
,,,1.77339, -89.74850,
,,,1.77586, -88.54850,
,,,1.77833, -94.94850,
,,,1.78080, -90.94850,
,,,1.78327, -89.74850,
,,,1.78574, -94.94850,
,,,1.78821, -90.94850,
,,,1.79068, -91.74850,
,,,1.79315, -94.94850,
,,,1.79562, -94.94850,
,,,1.79809, -90.94850,
,,,1.80056, -82.94850,
,,,1.80303, -86.94850,
,,,1.80550, -84.94850,
,,,1.80797, -82.94850,
,,,1.81044, -87.74850,
,,,1.81291, -93.74850,
,,,1.81538, -93.74850,
,,,1.81785, -86.94850,
,,,1.82032, -80.14850,
,,,1.82279, -80.94850,
,,,1.82526, -88.54850,
,,,1.82773, -94.94850,
,,,1.83020, -88.54850,
,,,1.83267, -86.94850,
,,,1.83514, -83.74850,
,,,1.83761, -84.94850,
,,,1.84008, -90.94850,
,,,1.84255, -82.54850,
,,,1.84502, -80.14850,
,,,1.84749, -82.14850,
,,,1.84996, -94.94850,
,,,1.85243, -88.94850,
,,,1.85490, -94.94850,
,,,1.85737, -91.34850,
,,,1.85984, -84.94850,
,,,1.86231, -91.74850,
,,,1.86478, -88.94850,
,,,1.86725, -87.74850,
,,,1.86972, -88.94850,
,,,1.87219, -86.14850,
,,,1.87466, -86.14850,
,,,1.87713, -94.94850,
,,,1.87960, -94.94850,
,,,1.88207, -93.74850,
,,,1.88454, -91.74850,
,,,1.88701, -94.94850,
,,,1.88948, -94.94850,
,,,1.89195, -94.94850,
,,,1.89442, -93.74850,
,,,1.89689, -88.94850,
,,,1.89936, -94.94850,
,,,1.90183, -88.94850,
,,,1.90430, -89.74850,
,,,1.90677, -85.74850,
,,,1.90924, -89.74850,
,,,1.91171, -90.94850,
,,,1.91418, -89.74850,
,,,1.91665, -88.54850,
,,,1.91912, -88.54850,
,,,1.92159, -89.74850,
,,,1.92406, -88.54850,
,,,1.92653, -79.74850,
,,,1.92900, -77.74850,
,,,1.93147, -82.94850,
,,,1.93394, -86.14850,
,,,1.93641, -84.94850,
,,,1.93888, -93.74850,
,,,1.94135, -86.94850,
,,,1.94382, -84.54850,
,,,1.94629, -88.94850,
,,,1.94876, -83.74850,
,,,1.95123, -82.94850,
,,,1.95370, -82.14850,
,,,1.95617, -90.94850,
,,,1.95864, -90.94850,
,,,1.96111, -93.74850,
,,,1.96358, -89.74850,
,,,1.96605, -84.94850,
,,,1.96852, -86.94850,
,,,1.97099, -94.94850,
,,,1.97346, -90.94850,
,,,1.97593, -79.74850,
,,,1.97840, -80.94850,
,,,1.98087, -84.54850,
,,,1.98334, -88.54850,
,,,1.98581, -91.34850,
,,,1.98828, -87.74850,
,,,1.99075, -81.74850,
,,,1.99322, -93.74850,
,,,1.99569, -82.94850,
,,,1.99816, -85.74850,
,,,2.00063, -93.74850,
,,,2.00310, -87.74850,
,,,2.00557, -84.94850,
,,,2.00804, -87.74850,
,,,2.01051, -84.54850,
,,,2.01298, -89.74850,
,,,2.01545, -91.34850,
,,,2.01792, -85.34850,
,,,2.02039, -82.14850,
,,,2.02286, -88.94850,
,,,2.02533, -87.74850,
,,,2.02780, -89.74850,
,,,2.03027, -82.54850,
,,,2.03274, -85.34850,
,,,2.03521, -89.74850,
,,,2.03768, -84.94850,
,,,2.04015, -83.74850,
,,,2.04262, -86.14850,
,,,2.04509, -94.94850,
,,,2.04756, -84.54850,
,,,2.05003, -85.74850,
,,,2.05250, -93.74850,
,,,2.05497, -86.94850,
,,,2.05744, -87.74850,
,,,2.05991, -94.94850,
,,,2.06238, -85.74850,
,,,2.06485, -86.94850,
,,,2.06732, -91.34850,
,,,2.06979, -82.94850,
,,,2.07226, -79.74850,
,,,2.07473, -80.54850,
,,,2.07720, -91.34850,
,,,2.07967, -81.74850,
,,,2.08214, -81.74850,
,,,2.08461, -94.94850,
,,,2.08708, -93.74850,
,,,2.08955, -90.94850,
